…
  # Combine the data frames
  combined_df <- bind_rows(df_g1, df_g2, df_g3)
  
  # Return the combined data frame
  return(combined_df)
}

# Example usage for subject 29
df_sub10 <- get_subject_data(10)
print(df_sub10)
```

    ## # A tibble: 168,435 × 4
    ##    Subject_Session Value Day    Gradient
    ##    <chr>           <dbl> <chr>  <chr>   
    ##  1 sub.10.ses.1    21.3  Day 1  G1      
    ##  2 sub.10.ses.2    13.2  Day 3  G1      
    ##  3 sub.10.ses.3     9.18 Day 30 G1      
    ##  4 sub.10.ses.1     8.04 Day 1  G1      
    ##  5 sub.10.ses.2     5.78 Day 3  G1      
    ##  6 sub.10.ses.3     2.08 Day 30 G1      
    ##  7 sub.10.ses.1     7.73 Day 1  G1      
    ##  8 sub.10.ses.2    17.8  Day 3  G1      
    ##  9 sub.10.ses.3     2.03 Day 30 G1      
    ## 10 sub.10.ses.1    18.6  Day 1  G1      
    ## # ℹ 168,425 more rows
…
